IHT/IHT.sim/sim_1/behav/xsim/test.vcd
$date
   Mon Dec  2 20:59:13 2019
$end
$version
  2019.1
$end
$timescale
  1ps
$end
$scope module test $end
$var reg 1 ! clock_iht $end
$var reg 16 " x [0:15] $end
$var wire 1 # clk3 $end
$var wire 16 $ cd_3_iht [0:15] $end
$var wire 16 % ca_3 [0:15] $end
$scope module uut $end
$var wire 1 & clock_iht $end
$var wire 16 ' x [0:15] $end
$var wire 1 # clk3 $end
$var wire 16 $ cd_3_iht [0:15] $end
$var wire 16 % ca_3 [0:15] $end
$var wire 1 ( clk1 $end
$var wire 1 ) clk2 $end
$var wire 16 * cd_1 [0:15] $end
$var wire 16 + ca_1 [0:15] $end
$var wire 16 , cd_2 [0:15] $end
$var wire 16 - ca_2 [0:15] $end
$scope module i1 $end
$var wire 1 & clk $end
$var wire 16 ' data_in [0:15] $end
$var wire 1 ( clk_out $end
$var wire 16 * cd [0:15] $end
$var wire 16 + ca [0:15] $end
$var reg 16 . cal_1 [0:15] $end
$var reg 16 / cal_2 [0:15] $end
$var wire 1 0 clkby2 $end
$scope module by2 $end
$var wire 1 & clock_in $end
$var wire 1 0 clock_out $end
$var reg 28 1 counter [27:0] $end
$var parameter 28 2 DIVISOR [27:0] $end
$upscope $end
$upscope $end
$scope module i2 $end
$var wire 1 ( clk $end
$var wire 16 + data_in [0:15] $end
$var wire 1 ) clk_out $end
$var wire 16 , cd [0:15] $end
$var wire 16 - ca [0:15] $end
$var reg 16 3 cal_1 [0:15] $end
$var reg 16 4 cal_2 [0:15] $end
$var wire 1 5 clkby2 $end
$scope module by2 $end
$var wire 1 ( clock_in $end
$var wire 1 5 clock_out $end
$var reg 28 6 counter [27:0] $end
$var parameter 28 7 DIVISOR [27:0] $end
$upscope $end
$upscope $end
$scope module i3 $end
$var wire 1 ) clk $end
$var wire 16 - data_in [0:15] $end
$var wire 1 # clk_out $end
$var wire 16 $ cd [0:15] $end
$var wire 16 % ca [0:15] $end
$var reg 16 8 cal_1 [0:15] $end
$var reg 16 9 cal_2 [0:15] $end
$var wire 1 : clkby2 $end
$scope module by2 $end
$var wire 1 ) clock_in $end
$var wire 1 : clock_out $end
$var reg 28 ; counter [27:0] $end
$var parameter 28 < DIVISOR [27:0] $end
$upscope $end
$upscope $end
$upscope $end
$upscope $end
$enddefinitions $end
#0
$dumpvars
0!
bx "
0#
bx $
bx %
0&
bx '
0(
0)
bx *
bx +
bx ,
bx -
bx .
bx /
00
b0 1
b10 2
bx 3
bx 4
05
b0 6
b10 7
bx 8
bx 9
0:
b0 ;
b10 <
$end
#1000
1!
b10 "
1#
b0xxxxxxxxxxxxxxx %
1&
b10 '
1(
1)
b0xxxxxxxxxxxxxxx +
b0xxxxxxxxxxxxxxx -
b0xxxxxxxxxxxxxxx .
10
b1 1
b0xxxxxxxxxxxxxxx 3
15
b1 6
b0xxxxxxxxxxxxxxx 8
1:
b1 ;
#2000
0!
0&
#3000
1!
b11 "
1&
b11 '
0(
b10 .
b1111111111111111 /
00
b0 1
#4000
0!
0&
#5000
1!
b100 "
1&
b100 '
1(
0)
b1111111111111111 *
b11 +
b11 .
10
b1 1
b0xxxxxxxxxxxxxxx 3
05
b0 6
#6000
0!
0&
#7000
1!
b101 "
1&
b101 '
0(
b100 .
00
b0 1
#8000
0!
0&
#9000
1!
b100 "
0#
1&
b100 '
1(
1)
b1 *
b100 +
b1111111111111111 ,
b11 -
b100 .
b1 /
10
b1 1
b11 3
b1111111111111111 4
15
b1 6
b0xxxxxxxxxxxxxxx 8
0:
b0 ;
#10000
0!
0&
#11000
1!
b11 "
1&
b11 '
0(
b11 .
00
b0 1
#12000
0!
0&
#13000
1!
b10 "
1&
b10 '
1(
0)
b10 +
b10 .
10
b1 1
b11 3
b10 4
05
b0 6
#14000
0!
0&
#15000
1!
b1 "
1&
b1 '
0(
b1 .
00
b0 1
#16000
0!
0&
#17000
1!
b10 "
1#
b10 $
b10 %
1&
b10 '
1(
1)
b1111111111111111 *
b1 +
b1 ,
b1 -
b1 .
b1111111111111111 /
10
b1 1
b1 3
b1 4
15
b1 6
b10 8
b10 9
1:
b1 ;
#18000
0!
0&
#19000
1!
b11 "
1&
b11 '
0(
b10 .
00
b0 1
#20000
0!
0&
#21000
1!
b100 "
1&
b100 '
1(
0)
b11 +
b11 .
10
b1 1
b10 3
b1111111111111110 4
05
b0 6
#22000
0!
0&
#23000
1!
b101 "
1&
b101 '
0(
b100 .
00
b0 1
#24000
0!
0&
#25000
1!
b100 "
0#
1&
b100 '
1(
1)
b1 *
b100 +
b1111111111111111 ,
b11 -
b100 .
b1 /
10
b1 1
b11 3
b1111111111111111 4
15
b1 6
b10 8
b1111111111111110 9
0:
b0 ;
#26000
0!
0&
#27000
1!
b10 "
1&
b10 '
0(
b11 .
b10 /
00
b0 1
#28000
0!
0&
#29000
1!
b11 "
1&
b11 '
1(
0)
b1111111111111111 *
b10 +
b10 .
b1111111111111111 /
10
b1 1
b11 3
b10 4
05
b0 6
#30000
0!
0&
#31000
1!
b100 "
1&
b100 '
0(
b11 .
00
b0 1
#32000
0!
0&
#33000
1!
b101 "
1#
b0 $
b11 %
1&
b101 '
1(
1)
b100 +
b1111111111111110 ,
b100 .
10
b1 1
b11 3
b1111111111111110 4
15
b1 6
b11 8
b0 9
1:
b1 ;
#34000
0!
0&
#35000
1!
b100 "
1&
b100 '
0(
b100 .
b1 /
00
b0 1
#36000
0!
0&
#37000
1!
b1 "
1&
b1 '
1(
0)
b11 *
b10 +
b10 .
b11 /
10
b1 1
b11 3
b10 4
05
b0 6
#38000
0!
0&
#39000
1!
b100 "
1&
b100 '
0(
b10 .
b1111111111111101 /
00
b0 1
#40000
0!
0&
#41000
1!
b10 "
0#
1&
b10 '
1(
1)
b10 *
b11 +
b1111111111111111 ,
b10 -
b11 .
b10 /
10
b1 1
b10 3
b1111111111111111 4
15
b1 6
b10 8
b1 9
0:
b0 ;
#42000
0!
0&
#43000
1!
b11 "
1&
b11 '
0(
b10 .
b1111111111111111 /
00
b0 1
#44000
0!
0&
#45000
1!
b1 "
1&
b1 '
1(
0)
b10 +
b10 .
b10 /
10
b1 1
b10 3
b1 4
05
b0 6
#46000
0!
0&
#47000
1!
b10 "
1&
b10 '
0(
b1 .
b1111111111111111 /
00
b0 1
#48000
0!
0&
#49000
1!
b11 "
1#
b10 %
1&
b11 '
1(
1)
b1111111111111111 *
b0 ,
b10 .
10
b1 1
b10 3
b0 4
15
b1 6
b10 8
b0 9
1:
b1 ;
#50000
0!
0&
#51000
1!
b100 "
1&
b100 '
0(
b11 .
00
b0 1
#52000
0!
0&
#53000
1!
1&
1(
0)
b0 *
b100 +
b100 .
b0 /
10
b1 1
b11 3
b1111111111111110 4
05
b0 6
#54000
0!
0&
#55000
1!
1&
0(
b100 .
00
b0 1
#56000
0!
0&
#57000
1!
0#
1&
1(
1)
b100 -
b100 .
10
b1 1
b100 3
b0 4
15
b1 6
b11 8
b1111111111111110 9
0:
b0 ;
#58000
0!
0&
#59000
1!
1&
0(
b100 .
00
b0 1
#60000
0!
0&
#61000
1!
1&
1(
0)
b100 .
10
b1 1
b100 3
05
b0 6
#62000
0!
0&
#63000
1!
1&
0(
b100 .
00
b0 1
#64000
0!
0&
#65000
1!
1#
b100 %
1&
1(
1)
b100 .
10
b1 1
b100 3
15
b1 6
b100 8
b0 9
1:
b1 ;
#66000
0!
0&
#67000
1!
1&
0(
b100 .
00
b0 1
#68000
0!
0&
#69000
1!
1&
1(
0)
b100 .
10
b1 1
b100 3
05
b0 6
#70000
0!
0&
#71000
1!
1&
0(
b100 .
00
b0 1
#72000
0!
0&
#73000
1!
0#
1&
1(
1)
b100 .
10
b1 1
b100 3
15
b1 6
b100 8
0:
b0 ;
#74000
0!
0&
#75000
1!
1&
0(
b100 .
00
b0 1
#76000
0!
0&
#77000
1!
1&
1(
0)
b100 .
10
b1 1
b100 3
05
b0 6
#78000
0!
0&
#79000
1!
1&
0(
b100 .
00
b0 1
#80000
0!
0&
#81000
1!
1#
1&
1(
1)
b100 .
10
b1 1
b100 3
15
b1 6
b100 8
1:
b1 ;
#82000
0!
0&
#83000
1!
1&
0(
b100 .
00
b0 1
#84000
0!
0&
#85000
1!
1&
1(
0)
b100 .
10
b1 1
b100 3
05
b0 6
#86000
0!
0&
#87000
1!
1&
0(
b100 .
00
b0 1
#88000
0!
0&
#89000
1!
0#
1&
1(
1)
b100 .
10
b1 1
b100 3
15
b1 6
b100 8
0:
b0 ;
#90000
0!
0&
#91000
1!
1&
0(
b100 .
00
b0 1
#92000
0!
0&
#93000
1!
1&
1(
0)
b100 .
10
b1 1
b100 3
05
b0 6
#94000
0!
0&
#95000
1!
1&
0(
b100 .
00
b0 1
#96000
0!
0&
#97000
1!
1#
1&
1(
1)
b100 .
10
b1 1
b100 3
15
b1 6
b100 8
1:
b1 ;
#98000
0!
0&
#99000
1!
1&
0(
b100 .
00
b0 1
#100000
0!
0&
#101000
1!
1&
1(
0)
b100 .
10
b1 1
b100 3
05
b0 6
#102000
0!
0&
#103000
1!
1&
0(
b100 .
00
b0 1
#104000
0!
0&
#105000
1!
0#
1&
1(
1)
b100 .
10
b1 1
b100 3
15
b1 6
b100 8
0:
b0 ;
#106000
0!
0&
#107000
1!
1&
0(
b100 .
00
b0 1
#108000
0!
0&
#109000
1!
1&
1(
0)
b100 .
10
b1 1
b100 3
05
b0 6
#110000
0!
0&
#111000
1!
1&
0(
b100 .
00
b0 1
#112000
0!
0&
#113000
1!
1#
1&
1(
1)
b100 .
10
b1 1
b100 3
15
b1 6
b100 8
1:
b1 ;
#114000
0!
0&
#115000
1!
1&
0(
b100 .
00
b0 1
#116000
0!
0&
#117000
1!
1&
1(
0)
b100 .
10
b1 1
b100 3
05
b0 6
#118000
0!
0&
#119000
1!
1&
0(
b100 .
00
b0 1
#120000
0!
0&
#121000
1!
0#
1&
1(
1)
b100 .
10
b1 1
b100 3
15
b1 6
b100 8
0:
b0 ;
#122000
0!
0&
#123000
1!
1&
0(
b100 .
00
b0 1
#124000
0!
0&
#125000
1!
1&
1(
0)
b100 .
10
b1 1
b100 3
05
b0 6
#126000
0!
0&
#127000
1!
1&
0(
b100 .
00
b0 1
#128000
0!
0&
#129000
1!
1#
1&
1(
1)
b100 .
10
b1 1
b100 3
15
b1 6
b100 8
1:
b1 ;
#130000
0!
0&
#131000
1!
1&
0(
b100 .
00
b0 1
#132000
0!
0&
#133000
1!
1&
1(
0)
b100 .
10
b1 1
b100 3
05
b0 6
#134000
0!
0&
#135000
1!
1&
0(
b100 .
00
b0 1
#136000
0!
0&
#137000
1!
0#
1&
1(
1)
b100 .
10
b1 1
b100 3
15
b1 6
b100 8
0:
b0 ;
#138000
0!
0&
#139000
1!
1&
0(
b100 .
00
b0 1
#140000
0!
0&
#141000
1!
1&
1(
0)
b100 .
10
b1 1
b100 3
05
b0 6
#142000
0!
0&
#143000
1!
1&
0(
b100 .
00
b0 1
#144000
0!
0&
#145000
1!
1#
1&
1(
1)
b100 .
10
b1 1
b100 3
15
b1 6
b100 8
1:
b1 ;
#146000
0!
0&
#147000
1!
1&
0(
b100 .
00
b0 1
#148000
0!
0&
#149000
1!
1&
1(
0)
b100 .
10
b1 1
b100 3
05
b0 6
